RegisterFile/transcript
# Reading pref.tcl
# OpenFile C:/Users/steve/OneDrive/Documents/GitHub/TCES330_Project/TCES330_Project/RegisterFile/regfile16x16a.sv
do run_regfile.do
# ** Warning: (vlib-34) Library already exists at "work".
# Model Technology ModelSim - Intel FPGA Edition vlog 2020.1 Compiler 2020.02 Feb 28 2020
# Start time: 10:51:29 on May 30,2023
# vlog -reportprogress 300 ./regfile8x16a.sv 
# ** Error: (vlog-7) Failed to open design unit file "./regfile8x16a.sv" in read mode.
# No such file or directory. (errno = ENOENT)
# End time: 10:51:29 on May 30,2023, Elapsed time: 0:00:00
# Errors: 1, Warnings: 0
# ** Error: C:/intelFPGA_lite/20.1/modelsim_ase/win32aloem/vlog failed.
# Error in macro ./run_regfile.do line 7
# C:/intelFPGA_lite/20.1/modelsim_ase/win32aloem/vlog failed.
#     while executing
# "vlog "./regfile8x16a.sv""
do run_regfile.do
# ** Warning: (vlib-34) Library already exists at "work".
# Model Technology ModelSim - Intel FPGA Edition vlog 2020.1 Compiler 2020.02 Feb 28 2020
# Start time: 10:51:53 on May 30,2023
# vlog -reportprogress 300 ./regfile16x16a.sv 
# -- Compiling module regfile16x16a
# -- Compiling module regfile16x16a_tb
# 
# Top level modules:
# 	regfile16x16a_tb
# End time: 10:51:53 on May 30,2023, Elapsed time: 0:00:00
# Errors: 0, Warnings: 0
# vsim -voptargs=""+acc"" -t 1ps -lib work regfile16x16a_tb 
# Start time: 10:51:53 on May 30,2023
# Loading sv_std.std
# Loading work.regfile16x16a_tb
# Loading work.regfile16x16a
# .main_pane.wave.interior.cs.body.pw.wf
# .main_pane.structure.interior.cs.body.struct
# .main_pane.objects.interior.cs.body.tree
# Write case:          0, Write Address: 0100, Write Data: 0101111010000001
# Write case:          1, Write Address: 1001, Write Data: 0101011001100011
# Write case:          2, Write Address: 1101, Write Data: 1001100110001101
# Write case:          3, Write Address: 0101, Write Data: 0101001000010010
# Write case:          4, Write Address: 0001, Write Data: 1100110100001101
# Write case:          5, Write Address: 0110, Write Data: 1100110100111101
# Write case:          6, Write Address: 1101, Write Data: 1111011110001100
# Write case:          7, Write Address: 1001, Write Data: 0010010011000110
# Write case:          8, Write Address: 0101, Write Data: 1101001010101010
# Write case:          9, Write Address: 0101, Write Data: 0111001001110111
# Write case:         10, Write Address: 0010, Write Data: 1101101110001111
# Write case:         11, Write Address: 0010, Write Data: 1001011011001110
# Write case:         12, Write Address: 1000, Write Data: 0100111011000101
# Write case:         13, Write Address: 1100, Write Data: 0010100010111101
# Write case:         14, Write Address: 1101, Write Data: 0010011001100101
# Write case:         15, Write Address: 0011, Write Data: 1000011100001010
# Write case:         16, Write Address: 0000, Write Data: 0010000100100000
# Write case:         17, Write Address: 1010, Write Data: 1100110010011101
# Write case:         18, Write Address: 0110, Write Data: 1011100000010011
# Write case:         19, Write Address: 1101, Write Data: 1101011001010011
# Write case:         20, Write Address: 1011, Write Data: 0010101011010101
# Write case:         21, Write Address: 0010, Write Data: 0011111010101110
# Write case:         22, Write Address: 1101, Write Data: 0111001011001111
# Write case:         23, Write Address: 0011, Write Data: 0110010100001010
# Write case:         24, Write Address: 1010, Write Data: 0100110000111100
# Write case:         25, Write Address: 0010, Write Data: 0110000110001010
# Write case:         26, Write Address: 0001, Write Data: 0011010011011000
# Write case:         27, Write Address: 1000, Write Data: 0001001010001001
# Write case:         28, Write Address: 1011, Write Data: 0110010110110110
# Write case:         29, Write Address: 0110, Write Data: 0001001110101110
# Write case:         30, Write Address: 1100, Write Data: 1101110100101010
# Write case:         31, Write Address: 1011, Write Data: 1011111001110001
# Write case:         32, Write Address: 0101, Write Data: 0101010101001111
# Write case:         33, Write Address: 1011, Write Data: 0011001100111010
# Write case:         34, Write Address: 1110, Write Data: 0100101100010101
# Write case:         35, Write Address: 0001, Write Data: 0100101111011001
# Write case:         36, Write Address: 0010, Write Data: 1111101101001100
# Write case:         37, Write Address: 1111, Write Data: 1010000110001111
# Write case:         38, Write Address: 1000, Write Data: 0110000010110111
# Write case:         39, Write Address: 1111, Write Data: 1001010001011100
# Write case:         40, Write Address: 1011, Write Data: 0011011110001001
# Write case:         41, Write Address: 1001, Write Data: 0011111011010000
# Write case:         42, Write Address: 0111, Write Data: 1111110001010001
# Write case:         43, Write Address: 0110, Write Data: 0111111100001100
# Write case:         44, Write Address: 0010, Write Data: 1110110111001000
# Write case:         45, Write Address: 0111, Write Data: 1110110100111101
# Write case:         46, Write Address: 0010, Write Data: 0000000001111110
# Write case:         47, Write Address: 1101, Write Data: 1110011100111001
# Write case:         48, Write Address: 1111, Write Data: 1111011011010011
# Write case:         49, Write Address: 0101, Write Data: 1000100001111000
# Write case:         50, Write Address: 1011, Write Data: 0100101101001001
# Write case:         51, Write Address: 1111, Write Data: 1010111100101010
# Write case:         52, Write Address: 1000, Write Data: 0011100010000110
# Write case:         53, Write Address: 1110, Write Data: 1111001010011100
# Write case:         54, Write Address: 1010, Write Data: 1011110000100110
# Write case:         55, Write Address: 0011, Write Data: 1011010010100011
# Write case:         56, Write Address: 1111, Write Data: 1001001010110011
# Write case:         57, Write Address: 1111, Write Data: 0000110101000100
# Write case:         58, Write Address: 0111, Write Data: 0011011011001011
# Write case:         59, Write Address: 0110, Write Data: 1101101101011010
# Write case:         60, Write Address: 1001, Write Data: 1110001011101101
# Write case:         61, Write Address: 1010, Write Data: 1011011001100101
# Write case:         62, Write Address: 0101, Write Data: 1001010011011111
# Write case:         63, Write Address: 1001, Write Data: 1111111101000100
# Read Case:          0, Read Address A: 0000, Read Address B: 1010, Data A: 0010000100100000, Data B: 1011011001100101
# Read Case:          1, Read Address A: 1011, Read Address B: 1110, Data A: 0100101101001001, Data B: 1111001010011100
# Read Case:          2, Read Address A: 1100, Read Address B: 1010, Data A: 1101110100101010, Data B: 1011011001100101
# Read Case:          3, Read Address A: 1101, Read Address B: 0011, Data A: 1110011100111001, Data B: 1011010010100011
# Read Case:          4, Read Address A: 0110, Read Address B: 1110, Data A: 1101101101011010, Data B: 1111001010011100
# Read Case:          5, Read Address A: 0111, Read Address B: 1010, Data A: 0011011011001011, Data B: 1011011001100101
# Read Case:          6, Read Address A: 0110, Read Address B: 1000, Data A: 1101101101011010, Data B: 0011100010000110
# Read Case:          7, Read Address A: 1001, Read Address B: 1000, Data A: 1111111101000100, Data B: 0011100010000110
# Read Case:          8, Read Address A: 0100, Read Address B: 0011, Data A: 0101111010000001, Data B: 1011010010100011
# Read Case:          9, Read Address A: 0100, Read Address B: 1001, Data A: 0101111010000001, Data B: 1111111101000100
# Read Case:         10, Read Address A: 1011, Read Address B: 1101, Data A: 0100101101001001, Data B: 1110011100111001
# Read Case:         11, Read Address A: 1001, Read Address B: 1101, Data A: 1111111101000100, Data B: 1110011100111001
# Read Case:         12, Read Address A: 0110, Read Address B: 1010, Data A: 1101101101011010, Data B: 1011011001100101
# Read Case:         13, Read Address A: 0110, Read Address B: 0101, Data A: 1101101101011010, Data B: 1001010011011111
# Read Case:         14, Read Address A: 0110, Read Address B: 0100, Data A: 1101101101011010, Data B: 0101111010000001
# Read Case:         15, Read Address A: 0111, Read Address B: 1001, Data A: 0011011011001011, Data B: 1111111101000100
# Read Case:         16, Read Address A: 0100, Read Address B: 1000, Data A: 0101111010000001, Data B: 0011100010000110
# Read Case:         17, Read Address A: 1000, Read Address B: 1101, Data A: 0011100010000110, Data B: 1110011100111001
# Read Case:         18, Read Address A: 0111, Read Address B: 1110, Data A: 0011011011001011, Data B: 1111001010011100
# Read Case:         19, Read Address A: 1000, Read Address B: 1100, Data A: 0011100010000110, Data B: 1101110100101010
# Read Case:         20, Read Address A: 1101, Read Address B: 1001, Data A: 1110011100111001, Data B: 1111111101000100
# Read Case:         21, Read Address A: 1100, Read Address B: 0110, Data A: 1101110100101010, Data B: 1101101101011010
# Read Case:         22, Read Address A: 1010, Read Address B: 1101, Data A: 1011011001100101, Data B: 1110011100111001
# Read Case:         23, Read Address A: 0110, Read Address B: 0000, Data A: 1101101101011010, Data B: 0010000100100000
# Read Case:         24, Read Address A: 0011, Read Address B: 1010, Data A: 1011010010100011, Data B: 1011011001100101
# Read Case:         25, Read Address A: 1110, Read Address B: 1010, Data A: 1111001010011100, Data B: 1011011001100101
# Read Case:         26, Read Address A: 0101, Read Address B: 1010, Data A: 1001010011011111, Data B: 1011011001100101
# Read Case:         27, Read Address A: 1001, Read Address B: 0111, Data A: 1111111101000100, Data B: 0011011011001011
# Read Case:         28, Read Address A: 0110, Read Address B: 0000, Data A: 1101101101011010, Data B: 0010000100100000
# Read Case:         29, Read Address A: 0110, Read Address B: 0110, Data A: 1101101101011010, Data B: 1101101101011010
# Read Case:         30, Read Address A: 1101, Read Address B: 1100, Data A: 1110011100111001, Data B: 1101110100101010
# Read Case:         31, Read Address A: 0110, Read Address B: 1000, Data A: 1101101101011010, Data B: 0011100010000110
# Read Case:         32, Read Address A: 1110, Read Address B: 1011, Data A: 1111001010011100, Data B: 0100101101001001
# Read Case:         33, Read Address A: 1111, Read Address B: 1001, Data A: 0000110101000100, Data B: 1111111101000100
# Read Case:         34, Read Address A: 1010, Read Address B: 0001, Data A: 1011011001100101, Data B: 0100101111011001
# Read Case:         35, Read Address A: 0111, Read Address B: 0001, Data A: 0011011011001011, Data B: 0100101111011001
# Read Case:         36, Read Address A: 0110, Read Address B: 0000, Data A: 1101101101011010, Data B: 0010000100100000
# Read Case:         37, Read Address A: 0101, Read Address B: 0101, Data A: 1001010011011111, Data B: 1001010011011111
# Read Case:         38, Read Address A: 1001, Read Address B: 0001, Data A: 1111111101000100, Data B: 0100101111011001
# Read Case:         39, Read Address A: 0101, Read Address B: 1000, Data A: 1001010011011111, Data B: 0011100010000110
# Read Case:         40, Read Address A: 1011, Read Address B: 0011, Data A: 0100101101001001, Data B: 1011010010100011
# Read Case:         41, Read Address A: 1100, Read Address B: 1010, Data A: 1101110100101010, Data B: 1011011001100101
# Read Case:         42, Read Address A: 1110, Read Address B: 1000, Data A: 1111001010011100, Data B: 0011100010000110
# Read Case:         43, Read Address A: 1001, Read Address B: 0001, Data A: 1111111101000100, Data B: 0100101111011001
# Read Case:         44, Read Address A: 1110, Read Address B: 0110, Data A: 1111001010011100, Data B: 1101101101011010
# Read Case:         45, Read Address A: 1111, Read Address B: 1010, Data A: 0000110101000100, Data B: 1011011001100101
# Read Case:         46, Read Address A: 1010, Read Address B: 1101, Data A: 1011011001100101, Data B: 1110011100111001
# Read Case:         47, Read Address A: 1110, Read Address B: 1000, Data A: 1111001010011100, Data B: 0011100010000110
# Read Case:         48, Read Address A: 1001, Read Address B: 1000, Data A: 1111111101000100, Data B: 0011100010000110
# Read Case:         49, Read Address A: 1010, Read Address B: 0011, Data A: 1011011001100101, Data B: 1011010010100011
# Read Case:         50, Read Address A: 1011, Read Address B: 0111, Data A: 0100101101001001, Data B: 0011011011001011
# Read Case:         51, Read Address A: 0110, Read Address B: 1010, Data A: 1101101101011010, Data B: 1011011001100101
# Read Case:         52, Read Address A: 0100, Read Address B: 1001, Data A: 0101111010000001, Data B: 1111111101000100
# Read Case:         53, Read Address A: 0010, Read Address B: 0100, Data A: 0000000001111110, Data B: 0101111010000001
# Read Case:         54, Read Address A: 1111, Read Address B: 0110, Data A: 0000110101000100, Data B: 1101101101011010
# Read Case:         55, Read Address A: 1010, Read Address B: 0010, Data A: 1011011001100101, Data B: 0000000001111110
# Read Case:         56, Read Address A: 0010, Read Address B: 1101, Data A: 0000000001111110, Data B: 1110011100111001
# Read Case:         57, Read Address A: 0100, Read Address B: 0100, Data A: 0101111010000001, Data B: 0101111010000001
# Read Case:         58, Read Address A: 1010, Read Address B: 1001, Data A: 1011011001100101, Data B: 1111111101000100
# Read Case:         59, Read Address A: 0001, Read Address B: 1110, Data A: 0100101111011001, Data B: 1111001010011100
# Read Case:         60, Read Address A: 1011, Read Address B: 1011, Data A: 0100101101001001, Data B: 0100101101001001
# Read Case:         61, Read Address A: 1111, Read Address B: 1001, Data A: 0000110101000100, Data B: 1111111101000100
# Read Case:         62, Read Address A: 0110, Read Address B: 0101, Data A: 1101101101011010, Data B: 1001010011011111
# Read Case:         63, Read Address A: 1111, Read Address B: 1011, Data A: 0000110101000100, Data B: 0100101101001001
# Break key hit
# Simulation stop requested.
quit -sim
# End time: 10:54:11 on May 30,2023, Elapsed time: 0:02:18
# Errors: 0, Warnings: 0
do run_regfile.do
# ** Warning: (vlib-34) Library already exists at "work".
# Model Technology ModelSim - Intel FPGA Edition vlog 2020.1 Compiler 2020.02 Feb 28 2020
# Start time: 10:54:15 on May 30,2023
# vlog -reportprogress 300 ./regfile16x16a.sv 
# -- Compiling module regfile16x16a
# -- Compiling module regfile16x16a_tb
# 
# Top level modules:
# 	regfile16x16a_tb
# End time: 10:54:15 on May 30,2023, Elapsed time: 0:00:00
# Errors: 0, Warnings: 0
# vsim -voptargs=""+acc"" -t 1ps -lib work regfile16x16a_tb 
# Start time: 10:54:15 on May 30,2023
# Loading sv_std.std
# Loading work.regfile16x16a_tb
# Loading work.regfile16x16a
# .main_pane.wave.interior.cs.body.pw.wf
# .main_pane.structure.interior.cs.body.struct
# .main_pane.objects.interior.cs.body.tree
# Write case:          0, Write Address: 0100, Write Data: 0101111010000001
# Write case:          1, Write Address: 1001, Write Data: 0101011001100011
# Write case:          2, Write Address: 1101, Write Data: 1001100110001101
# Write case:          3, Write Address: 0101, Write Data: 0101001000010010
# Write case:          4, Write Address: 0001, Write Data: 1100110100001101
# Write case:          5, Write Address: 0110, Write Data: 1100110100111101
# Write case:          6, Write Address: 1101, Write Data: 1111011110001100
# Write case:          7, Write Address: 1001, Write Data: 0010010011000110
# Write case:          8, Write Address: 0101, Write Data: 1101001010101010
# Write case:          9, Write Address: 0101, Write Data: 0111001001110111
# Write case:         10, Write Address: 0010, Write Data: 1101101110001111
# Write case:         11, Write Address: 0010, Write Data: 1001011011001110
# Write case:         12, Write Address: 1000, Write Data: 0100111011000101
# Write case:         13, Write Address: 1100, Write Data: 0010100010111101
# Write case:         14, Write Address: 1101, Write Data: 0010011001100101
# Write case:         15, Write Address: 0011, Write Data: 1000011100001010
# Write case:         16, Write Address: 0000, Write Data: 0010000100100000
# Write case:         17, Write Address: 1010, Write Data: 1100110010011101
# Write case:         18, Write Address: 0110, Write Data: 1011100000010011
# Write case:         19, Write Address: 1101, Write Data: 1101011001010011
# Write case:         20, Write Address: 1011, Write Data: 0010101011010101
# Write case:         21, Write Address: 0010, Write Data: 0011111010101110
# Write case:         22, Write Address: 1101, Write Data: 0111001011001111
# Write case:         23, Write Address: 0011, Write Data: 0110010100001010
# Write case:         24, Write Address: 1010, Write Data: 0100110000111100
# Write case:         25, Write Address: 0010, Write Data: 0110000110001010
# Write case:         26, Write Address: 0001, Write Data: 0011010011011000
# Write case:         27, Write Address: 1000, Write Data: 0001001010001001
# Write case:         28, Write Address: 1011, Write Data: 0110010110110110
# Write case:         29, Write Address: 0110, Write Data: 0001001110101110
# Write case:         30, Write Address: 1100, Write Data: 1101110100101010
# Write case:         31, Write Address: 1011, Write Data: 1011111001110001
# Write case:         32, Write Address: 0101, Write Data: 0101010101001111
# Write case:         33, Write Address: 1011, Write Data: 0011001100111010
# Write case:         34, Write Address: 1110, Write Data: 0100101100010101
# Write case:         35, Write Address: 0001, Write Data: 0100101111011001
# Write case:         36, Write Address: 0010, Write Data: 1111101101001100
# Write case:         37, Write Address: 1111, Write Data: 1010000110001111
# Write case:         38, Write Address: 1000, Write Data: 0110000010110111
# Write case:         39, Write Address: 1111, Write Data: 1001010001011100
# Write case:         40, Write Address: 1011, Write Data: 0011011110001001
# Write case:         41, Write Address: 1001, Write Data: 0011111011010000
# Write case:         42, Write Address: 0111, Write Data: 1111110001010001
# Write case:         43, Write Address: 0110, Write Data: 0111111100001100
# Write case:         44, Write Address: 0010, Write Data: 1110110111001000
# Write case:         45, Write Address: 0111, Write Data: 1110110100111101
# Write case:         46, Write Address: 0010, Write Data: 0000000001111110
# Write case:         47, Write Address: 1101, Write Data: 1110011100111001
# Write case:         48, Write Address: 1111, Write Data: 1111011011010011
# Write case:         49, Write Address: 0101, Write Data: 1000100001111000
# Write case:         50, Write Address: 1011, Write Data: 0100101101001001
# Write case:         51, Write Address: 1111, Write Data: 1010111100101010
# Write case:         52, Write Address: 1000, Write Data: 0011100010000110
# Write case:         53, Write Address: 1110, Write Data: 1111001010011100
# Write case:         54, Write Address: 1010, Write Data: 1011110000100110
# Write case:         55, Write Address: 0011, Write Data: 1011010010100011
# Write case:         56, Write Address: 1111, Write Data: 1001001010110011
# Write case:         57, Write Address: 1111, Write Data: 0000110101000100
# Write case:         58, Write Address: 0111, Write Data: 0011011011001011
# Write case:         59, Write Address: 0110, Write Data: 1101101101011010
# Write case:         60, Write Address: 1001, Write Data: 1110001011101101
# Write case:         61, Write Address: 1010, Write Data: 1011011001100101
# Write case:         62, Write Address: 0101, Write Data: 1001010011011111
# Write case:         63, Write Address: 1001, Write Data: 1111111101000100
# Read Case:          0, Read Address A: 0000, Read Address B: 1010, Data A: 0010000100100000, Data B: 1011011001100101
# Read Case:          1, Read Address A: 1011, Read Address B: 1110, Data A: 0100101101001001, Data B: 1111001010011100
# Read Case:          2, Read Address A: 1100, Read Address B: 1010, Data A: 1101110100101010, Data B: 1011011001100101
# Read Case:          3, Read Address A: 1101, Read Address B: 0011, Data A: 1110011100111001, Data B: 1011010010100011
# Read Case:          4, Read Address A: 0110, Read Address B: 1110, Data A: 1101101101011010, Data B: 1111001010011100
# Read Case:          5, Read Address A: 0111, Read Address B: 1010, Data A: 0011011011001011, Data B: 1011011001100101
# Read Case:          6, Read Address A: 0110, Read Address B: 1000, Data A: 1101101101011010, Data B: 0011100010000110
# Read Case:          7, Read Address A: 1001, Read Address B: 1000, Data A: 1111111101000100, Data B: 0011100010000110
# Read Case:          8, Read Address A: 0100, Read Address B: 0011, Data A: 0101111010000001, Data B: 1011010010100011
# Read Case:          9, Read Address A: 0100, Read Address B: 1001, Data A: 0101111010000001, Data B: 1111111101000100
# Read Case:         10, Read Address A: 1011, Read Address B: 1101, Data A: 0100101101001001, Data B: 1110011100111001
# Read Case:         11, Read Address A: 1001, Read Address B: 1101, Data A: 1111111101000100, Data B: 1110011100111001
# Read Case:         12, Read Address A: 0110, Read Address B: 1010, Data A: 1101101101011010, Data B: 1011011001100101
# Read Case:         13, Read Address A: 0110, Read Address B: 0101, Data A: 1101101101011010, Data B: 1001010011011111
# Read Case:         14, Read Address A: 0110, Read Address B: 0100, Data A: 1101101101011010, Data B: 0101111010000001
# Read Case:         15, Read Address A: 0111, Read Address B: 1001, Data A: 0011011011001011, Data B: 1111111101000100
# Read Case:         16, Read Address A: 0100, Read Address B: 1000, Data A: 0101111010000001, Data B: 0011100010000110
# Read Case:         17, Read Address A: 1000, Read Address B: 1101, Data A: 0011100010000110, Data B: 1110011100111001
# Read Case:         18, Read Address A: 0111, Read Address B: 1110, Data A: 0011011011001011, Data B: 1111001010011100
# Read Case:         19, Read Address A: 1000, Read Address B: 1100, Data A: 0011100010000110, Data B: 1101110100101010
# Read Case:         20, Read Address A: 1101, Read Address B: 1001, Data A: 1110011100111001, Data B: 1111111101000100
# Read Case:         21, Read Address A: 1100, Read Address B: 0110, Data A: 1101110100101010, Data B: 1101101101011010
# Read Case:         22, Read Address A: 1010, Read Address B: 1101, Data A: 1011011001100101, Data B: 1110011100111001
# Read Case:         23, Read Address A: 0110, Read Address B: 0000, Data A: 1101101101011010, Data B: 0010000100100000
# Read Case:         24, Read Address A: 0011, Read Address B: 1010, Data A: 1011010010100011, Data B: 1011011001100101
# Read Case:         25, Read Address A: 1110, Read Address B: 1010, Data A: 1111001010011100, Data B: 1011011001100101
# Read Case:         26, Read Address A: 0101, Read Address B: 1010, Data A: 1001010011011111, Data B: 1011011001100101
# Read Case:         27, Read Address A: 1001, Read Address B: 0111, Data A: 1111111101000100, Data B: 0011011011001011
# Read Case:         28, Read Address A: 0110, Read Address B: 0000, Data A: 1101101101011010, Data B: 0010000100100000
# Read Case:         29, Read Address A: 0110, Read Address B: 0110, Data A: 1101101101011010, Data B: 1101101101011010
# Read Case:         30, Read Address A: 1101, Read Address B: 1100, Data A: 1110011100111001, Data B: 1101110100101010
# Read Case:         31, Read Address A: 0110, Read Address B: 1000, Data A: 1101101101011010, Data B: 0011100010000110
# Read Case:         32, Read Address A: 1110, Read Address B: 1011, Data A: 1111001010011100, Data B: 0100101101001001
# Read Case:         33, Read Address A: 1111, Read Address B: 1001, Data A: 0000110101000100, Data B: 1111111101000100
# Read Case:         34, Read Address A: 1010, Read Address B: 0001, Data A: 1011011001100101, Data B: 0100101111011001
# Read Case:         35, Read Address A: 0111, Read Address B: 0001, Data A: 0011011011001011, Data B: 0100101111011001
# Read Case:         36, Read Address A: 0110, Read Address B: 0000, Data A: 1101101101011010, Data B: 0010000100100000
# Read Case:         37, Read Address A: 0101, Read Address B: 0101, Data A: 1001010011011111, Data B: 1001010011011111
# Read Case:         38, Read Address A: 1001, Read Address B: 0001, Data A: 1111111101000100, Data B: 0100101111011001
# Read Case:         39, Read Address A: 0101, Read Address B: 1000, Data A: 1001010011011111, Data B: 0011100010000110
# Read Case:         40, Read Address A: 1011, Read Address B: 0011, Data A: 0100101101001001, Data B: 1011010010100011
# Read Case:         41, Read Address A: 1100, Read Address B: 1010, Data A: 1101110100101010, Data B: 1011011001100101
# Read Case:         42, Read Address A: 1110, Read Address B: 1000, Data A: 1111001010011100, Data B: 0011100010000110
# Read Case:         43, Read Address A: 1001, Read Address B: 0001, Data A: 1111111101000100, Data B: 0100101111011001
# Read Case:         44, Read Address A: 1110, Read Address B: 0110, Data A: 1111001010011100, Data B: 1101101101011010
# Read Case:         45, Read Address A: 1111, Read Address B: 1010, Data A: 0000110101000100, Data B: 1011011001100101
# Read Case:         46, Read Address A: 1010, Read Address B: 1101, Data A: 1011011001100101, Data B: 1110011100111001
# Read Case:         47, Read Address A: 1110, Read Address B: 1000, Data A: 1111001010011100, Data B: 0011100010000110
# Read Case:         48, Read Address A: 1001, Read Address B: 1000, Data A: 1111111101000100, Data B: 0011100010000110
# Read Case:         49, Read Address A: 1010, Read Address B: 0011, Data A: 1011011001100101, Data B: 1011010010100011
# Read Case:         50, Read Address A: 1011, Read Address B: 0111, Data A: 0100101101001001, Data B: 0011011011001011
# Read Case:         51, Read Address A: 0110, Read Address B: 1010, Data A: 1101101101011010, Data B: 1011011001100101
# Read Case:         52, Read Address A: 0100, Read Address B: 1001, Data A: 0101111010000001, Data B: 1111111101000100
# Read Case:         53, Read Address A: 0010, Read Address B: 0100, Data A: 0000000001111110, Data B: 0101111010000001
# Read Case:         54, Read Address A: 1111, Read Address B: 0110, Data A: 0000110101000100, Data B: 1101101101011010
# Read Case:         55, Read Address A: 1010, Read Address B: 0010, Data A: 1011011001100101, Data B: 0000000001111110
# Read Case:         56, Read Address A: 0010, Read Address B: 1101, Data A: 0000000001111110, Data B: 1110011100111001
# Read Case:         57, Read Address A: 0100, Read Address B: 0100, Data A: 0101111010000001, Data B: 0101111010000001
# Read Case:         58, Read Address A: 1010, Read Address B: 1001, Data A: 1011011001100101, Data B: 1111111101000100
# Read Case:         59, Read Address A: 0001, Read Address B: 1110, Data A: 0100101111011001, Data B: 1111001010011100
# Read Case:         60, Read Address A: 1011, Read Address B: 1011, Data A: 0100101101001001, Data B: 0100101101001001
# Read Case:         61, Read Address A: 1111, Read Address B: 1001, Data A: 0000110101000100, Data B: 1111111101000100
# Read Case:         62, Read Address A: 0110, Read Address B: 0101, Data A: 1101101101011010, Data B: 1001010011011111
# Read Case:         63, Read Address A: 1111, Read Address B: 1011, Data A: 0000110101000100, Data B: 0100101101001001
# ** Note: $stop    : ./regfile16x16a.sv(51)
#    Time: 2560 ps  Iteration: 1  Instance: /regfile16x16a_tb
# Break in Module regfile16x16a_tb at ./regfile16x16a.sv line 51
# End time: 10:56:26 on May 30,2023, Elapsed time: 0:02:11
# Errors: 0, Warnings: 0
